EESchema Schematic File Version 4
LIBS:pqws-main-hw-cache
EELAYER 26 0
EELAYER END
$Descr A4 11693 8268
encoding utf-8
Sheet 3 6
Title ""
Date ""
Rev ""
Comp ""
Comment1 ""
Comment2 ""
Comment3 ""
Comment4 ""
$EndDescr
$Comp
L pqws-main-hw-rescue:L-device L3
U 1 1 5A7D1DA8
P 7200 3300
F 0 "L3" V 7150 3300 50  0000 C CNN
F 1 "33nH" V 7275 3300 50  0000 C CNN
F 2 "Inductor_SMD:L_0603_1608Metric_Pad0.84x1.00mm_HandSolder" H 7200 3300 50  0001 C CNN
F 3 "" H 7200 3300 50  0001 C CNN
F 4 "LL1608--FH33NK" V 7200 3300 60  0001 C CNN "Part Number"
	1    7200 3300
	0    -1   -1   0   
$EndComp
$Comp
L pqws-main-hw-rescue:L-device L4
U 1 1 5A7D1DAF
P 7250 3900
F 0 "L4" V 7200 3900 50  0000 C CNN
F 1 "33nH" V 7325 3900 50  0000 C CNN
F 2 "Inductor_SMD:L_0603_1608Metric_Pad0.84x1.00mm_HandSolder" H 7250 3900 50  0001 C CNN
F 3 "" H 7250 3900 50  0001 C CNN
F 4 "LL1608--FSL33NJ" V 7250 3900 60  0001 C CNN "Part Number"
	1    7250 3900
	0    -1   -1   0   
$EndComp
$Comp
L pqws-main-hw-rescue:L-device L5
U 1 1 5A7D1DB6
P 7100 4200
F 0 "L5" V 7050 4200 50  0000 C CNN
F 1 "33nH" V 7175 4200 50  0000 C CNN
F 2 "Inductor_SMD:L_0603_1608Metric_Pad0.84x1.00mm_HandSolder" H 7100 4200 50  0001 C CNN
F 3 "" H 7100 4200 50  0001 C CNN
F 4 "LL1005--FH33NK" V 7100 4200 60  0001 C CNN "Part Number"
	1    7100 4200
	1    0    0    -1  
$EndComp
$Comp
L pqws-main-hw-rescue:L-device L1
U 1 1 5A7D1DBD
P 4800 4100
F 0 "L1" V 4750 4100 50  0000 C CNN
F 1 "22nH" V 4875 4100 50  0000 C CNN
F 2 "Inductor_SMD:L_0603_1608Metric_Pad0.84x1.00mm_HandSolder" H 4800 4100 50  0001 C CNN
F 3 "" H 4800 4100 50  0001 C CNN
	1    4800 4100
	0    -1   -1   0   
$EndComp
$Comp
L pqws-main-hw-rescue:L-device L2
U 1 1 5A7D1DC4
P 5200 2800
F 0 "L2" V 5150 2800 50  0000 C CNN
F 1 "33nH" V 5275 2800 50  0000 C CNN
F 2 "Inductor_SMD:L_0603_1608Metric_Pad0.84x1.00mm_HandSolder" H 5200 2800 50  0001 C CNN
F 3 "" H 5200 2800 50  0001 C CNN
F 4 "LL1608--FH33NK" V 5200 2800 60  0001 C CNN "Part Number"
	1    5200 2800
	0    -1   -1   0   
$EndComp
$Comp
L pqws-main-hw-rescue:C-device C3
U 1 1 5A7D1DCB
P 6800 3900
F 0 "C3" H 6825 4000 50  0000 L CNN
F 1 "220pF" H 6825 3800 50  0000 L CNN
F 2 "Capacitor_SMD:C_0603_1608Metric_Pad0.84x1.00mm_HandSolder" H 6838 3750 50  0001 C CNN
F 3 "" H 6800 3900 50  0001 C CNN
	1    6800 3900
	0    1    1    0   
$EndComp
$Comp
L pqws-main-hw-rescue:C-device C11
U 1 1 5A7D1DD2
P 7600 3450
F 0 "C11" H 7625 3550 50  0000 L CNN
F 1 "4.7uF" H 7625 3350 50  0000 L CNN
F 2 "Capacitor_SMD:C_0603_1608Metric_Pad0.84x1.00mm_HandSolder" H 7638 3300 50  0001 C CNN
F 3 "" H 7600 3450 50  0001 C CNN
	1    7600 3450
	1    0    0    -1  
$EndComp
$Comp
L pqws-main-hw-rescue:C-device C12
U 1 1 5A7D1DD9
P 7900 3450
F 0 "C12" H 7925 3550 50  0000 L CNN
F 1 "1000pF" H 7925 3350 50  0000 L CNN
F 2 "Capacitor_SMD:C_0603_1608Metric_Pad0.84x1.00mm_HandSolder" H 7938 3300 50  0001 C CNN
F 3 "" H 7900 3450 50  0001 C CNN
	1    7900 3450
	1    0    0    -1  
$EndComp
$Comp
L pqws-main-hw-rescue:C-device C8
U 1 1 5A7D1DE0
P 3500 3450
F 0 "C8" H 3525 3550 50  0000 L CNN
F 1 "1uF" H 3525 3350 50  0000 L CNN
F 2 "Capacitor_SMD:C_0603_1608Metric_Pad0.84x1.00mm_HandSolder" H 3538 3300 50  0001 C CNN
F 3 "" H 3500 3450 50  0001 C CNN
F 4 "GRM188R61A105KA61ND" H 3500 3450 60  0001 C CNN "PartNumber"
	1    3500 3450
	1    0    0    -1  
$EndComp
$Comp
L pqws-main-hw-rescue:C-device C10
U 1 1 5A7D1DE7
P 5450 2950
F 0 "C10" H 5475 3050 50  0000 L CNN
F 1 "3.3pF" H 5475 2850 50  0000 L CNN
F 2 "Capacitor_SMD:C_0603_1608Metric_Pad0.84x1.00mm_HandSolder" H 5488 2800 50  0001 C CNN
F 3 "" H 5450 2950 50  0001 C CNN
	1    5450 2950
	1    0    0    -1  
$EndComp
$Comp
L pqws-main-hw-rescue:C-device C7
U 1 1 5A7D1DEE
P 6750 2850
F 0 "C7" H 6775 2950 50  0000 L CNN
F 1 "100pF" H 6775 2750 50  0000 L CNN
F 2 "Capacitor_SMD:C_0603_1608Metric_Pad0.84x1.00mm_HandSolder" H 6788 2700 50  0001 C CNN
F 3 "" H 6750 2850 50  0001 C CNN
	1    6750 2850
	1    0    0    -1  
$EndComp
$Comp
L pqws-main-hw-rescue:C-device C5
U 1 1 5A7D1DF5
P 6000 4900
F 0 "C5" H 6025 5000 50  0000 L CNN
F 1 "100pF" H 6025 4800 50  0000 L CNN
F 2 "Capacitor_SMD:C_0603_1608Metric_Pad0.84x1.00mm_HandSolder" H 6038 4750 50  0001 C CNN
F 3 "" H 6000 4900 50  0001 C CNN
	1    6000 4900
	1    0    0    -1  
$EndComp
$Comp
L power:GND #PWR013
U 1 1 5A7D1DFC
P 6000 5050
F 0 "#PWR013" H 6000 4800 50  0001 C CNN
F 1 "GND" H 6000 4900 50  0000 C CNN
F 2 "" H 6000 5050 50  0001 C CNN
F 3 "" H 6000 5050 50  0001 C CNN
	1    6000 5050
	1    0    0    -1  
$EndComp
$Comp
L power:GND #PWR014
U 1 1 5A7D1E02
P 7100 4350
F 0 "#PWR014" H 7100 4100 50  0001 C CNN
F 1 "GND" H 7100 4200 50  0000 C CNN
F 2 "" H 7100 4350 50  0001 C CNN
F 3 "" H 7100 4350 50  0001 C CNN
	1    7100 4350
	1    0    0    -1  
$EndComp
$Comp
L power:GND #PWR015
U 1 1 5A7D1E08
P 7550 4200
F 0 "#PWR015" H 7550 3950 50  0001 C CNN
F 1 "GND" H 7550 4050 50  0000 C CNN
F 2 "" H 7550 4200 50  0001 C CNN
F 3 "" H 7550 4200 50  0001 C CNN
	1    7550 4200
	1    0    0    -1  
$EndComp
$Comp
L power:GND #PWR016
U 1 1 5A7D1E0E
P 6750 3000
F 0 "#PWR016" H 6750 2750 50  0001 C CNN
F 1 "GND" H 6750 2850 50  0000 C CNN
F 2 "" H 6750 3000 50  0001 C CNN
F 3 "" H 6750 3000 50  0001 C CNN
	1    6750 3000
	1    0    0    -1  
$EndComp
$Comp
L power:GND #PWR017
U 1 1 5A7D1E14
P 7600 3600
F 0 "#PWR017" H 7600 3350 50  0001 C CNN
F 1 "GND" H 7600 3450 50  0000 C CNN
F 2 "" H 7600 3600 50  0001 C CNN
F 3 "" H 7600 3600 50  0001 C CNN
	1    7600 3600
	1    0    0    -1  
$EndComp
$Comp
L power:GND #PWR018
U 1 1 5A7D1E1A
P 7900 3600
F 0 "#PWR018" H 7900 3350 50  0001 C CNN
F 1 "GND" H 7900 3450 50  0000 C CNN
F 2 "" H 7900 3600 50  0001 C CNN
F 3 "" H 7900 3600 50  0001 C CNN
	1    7900 3600
	1    0    0    -1  
$EndComp
$Comp
L power:GND #PWR019
U 1 1 5A7D1E20
P 5450 3100
F 0 "#PWR019" H 5450 2850 50  0001 C CNN
F 1 "GND" H 5450 2950 50  0000 C CNN
F 2 "" H 5450 3100 50  0001 C CNN
F 3 "" H 5450 3100 50  0001 C CNN
	1    5450 3100
	1    0    0    -1  
$EndComp
$Comp
L power:GND #PWR020
U 1 1 5A7D1E26
P 3500 3600
F 0 "#PWR020" H 3500 3350 50  0001 C CNN
F 1 "GND" H 3500 3450 50  0000 C CNN
F 2 "" H 3500 3600 50  0001 C CNN
F 3 "" H 3500 3600 50  0001 C CNN
	1    3500 3600
	1    0    0    -1  
$EndComp
$Comp
L pqws-main-hw-rescue:C-device C4
U 1 1 5A7D1E2C
P 7550 4050
F 0 "C4" H 7575 4150 50  0000 L CNN
F 1 "33pF" H 7575 3950 50  0000 L CNN
F 2 "Capacitor_SMD:C_0603_1608Metric_Pad0.84x1.00mm_HandSolder" H 7588 3900 50  0001 C CNN
F 3 "" H 7550 4050 50  0001 C CNN
	1    7550 4050
	1    0    0    -1  
$EndComp
$Comp
L pqws-main-hw-rescue:R-device R2
U 1 1 5A7D1E45
P 4200 3650
F 0 "R2" V 4280 3650 50  0000 C CNN
F 1 "1.8K" V 4200 3650 50  0000 C CNN
F 2 "Resistor_SMD:R_0603_1608Metric_Pad0.84x1.00mm_HandSolder" V 4130 3650 50  0001 C CNN
F 3 "" H 4200 3650 50  0001 C CNN
	1    4200 3650
	0    1    1    0   
$EndComp
$Comp
L pqws-main-hw-rescue:R-device R1
U 1 1 5A7D1E4C
P 4200 3800
F 0 "R1" V 4280 3800 50  0000 C CNN
F 1 "2.2K" V 4200 3800 50  0000 C CNN
F 2 "Resistor_SMD:R_0603_1608Metric_Pad0.84x1.00mm_HandSolder" V 4130 3800 50  0001 C CNN
F 3 "" H 4200 3800 50  0001 C CNN
	1    4200 3800
	0    1    1    0   
$EndComp
$Comp
L pqws-main-hw-rescue:C-device C6
U 1 1 5A7D1E53
P 3950 4350
F 0 "C6" H 3975 4450 50  0000 L CNN
F 1 "100pF" H 3975 4250 50  0000 L CNN
F 2 "Capacitor_SMD:C_0603_1608Metric_Pad0.84x1.00mm_HandSolder" H 3988 4200 50  0001 C CNN
F 3 "" H 3950 4350 50  0001 C CNN
	1    3950 4350
	1    0    0    -1  
$EndComp
$Comp
L power:GND #PWR024
U 1 1 5A7D1E5A
P 3950 4500
F 0 "#PWR024" H 3950 4250 50  0001 C CNN
F 1 "GND" H 3950 4350 50  0000 C CNN
F 2 "" H 3950 4500 50  0001 C CNN
F 3 "" H 3950 4500 50  0001 C CNN
	1    3950 4500
	1    0    0    -1  
$EndComp
Wire Wire Line
	4950 4100 5000 4100
Wire Wire Line
	6000 4450 6000 4750
Wire Wire Line
	7350 3300 7900 3300
Connection ~ 7600 3300
Wire Wire Line
	7400 3900 7850 3900
Wire Wire Line
	7100 3900 6950 3900
Wire Wire Line
	6650 3900 6450 3900
Wire Wire Line
	7100 4050 7100 3900
Wire Wire Line
	5350 2800 5750 2800
Wire Wire Line
	5750 2800 5750 3350
Connection ~ 5450 2800
Wire Wire Line
	4900 2800 5050 2800
Wire Wire Line
	6450 3550 6450 2700
Wire Wire Line
	6450 2700 6750 2700
Wire Wire Line
	7050 3300 6750 3300
Wire Wire Line
	6750 3300 6750 3750
Wire Wire Line
	6750 3750 6450 3750
Wire Wire Line
	6450 3750 6450 4050
Wire Wire Line
	3950 3250 3950 4200
Wire Wire Line
	4050 3650 3950 3650
Connection ~ 3950 3650
Wire Wire Line
	4050 3800 3950 3800
Connection ~ 3950 3800
Wire Wire Line
	5250 3950 3950 3950
Connection ~ 3950 3950
Wire Wire Line
	4350 3650 5250 3650
Wire Wire Line
	5250 3800 4350 3800
Wire Wire Line
	3500 3300 3950 3300
Connection ~ 3950 3300
Text HLabel 4500 4100 0    60   Input ~ 0
RF_IN
Text HLabel 7850 3900 2    60   Input ~ 0
RF_OUT
Text HLabel 6450 2700 0    60   Input ~ 0
PowerDown
Text HLabel 6000 4600 0    60   Input ~ 0
PDET
Connection ~ 7550 3900
Wire Wire Line
	4650 4100 4600 4100
$Comp
L pqws-main-hw-rescue:C-device C9
U 1 1 5A7D87E7
P 5000 2950
F 0 "C9" H 5025 3050 50  0000 L CNN
F 1 "1uF" H 5025 2850 50  0000 L CNN
F 2 "Capacitor_SMD:C_0603_1608Metric_Pad0.84x1.00mm_HandSolder" H 5038 2800 50  0001 C CNN
F 3 "" H 5000 2950 50  0001 C CNN
F 4 "GRM188R61A105KA61ND" H 5000 2950 60  0001 C CNN "PartNumber"
	1    5000 2950
	1    0    0    -1  
$EndComp
$Comp
L power:GND #PWR025
U 1 1 5A7D8882
P 5000 3100
F 0 "#PWR025" H 5000 2850 50  0001 C CNN
F 1 "GND" H 5000 2950 50  0000 C CNN
F 2 "" H 5000 3100 50  0001 C CNN
F 3 "" H 5000 3100 50  0001 C CNN
	1    5000 3100
	1    0    0    -1  
$EndComp
Connection ~ 5000 2800
$Comp
L pqws-main-hw-rescue:C-device C1
U 1 1 5A7D950B
P 4600 4250
F 0 "C1" H 4625 4350 50  0000 L CNN
F 1 "15pF" H 4625 4150 50  0000 L CNN
F 2 "Capacitor_SMD:C_0603_1608Metric_Pad0.84x1.00mm_HandSolder" H 4638 4100 50  0001 C CNN
F 3 "" H 4600 4250 50  0001 C CNN
	1    4600 4250
	1    0    0    -1  
$EndComp
$Comp
L power:GND #PWR026
U 1 1 5A7D9511
P 4600 4400
F 0 "#PWR026" H 4600 4150 50  0001 C CNN
F 1 "GND" H 4600 4250 50  0000 C CNN
F 2 "" H 4600 4400 50  0001 C CNN
F 3 "" H 4600 4400 50  0001 C CNN
	1    4600 4400
	1    0    0    -1  
$EndComp
$Comp
L pqws-main-hw-rescue:C-device C2
U 1 1 5A7D956A
P 5000 4250
F 0 "C2" H 5025 4350 50  0000 L CNN
F 1 "27pF" H 5025 4150 50  0000 L CNN
F 2 "Capacitor_SMD:C_0603_1608Metric_Pad0.84x1.00mm_HandSolder" H 5038 4100 50  0001 C CNN
F 3 "" H 5000 4250 50  0001 C CNN
	1    5000 4250
	1    0    0    -1  
$EndComp
$Comp
L power:GND #PWR027
U 1 1 5A7D9570
P 5000 4400
F 0 "#PWR027" H 5000 4150 50  0001 C CNN
F 1 "GND" H 5000 4250 50  0000 C CNN
F 2 "" H 5000 4400 50  0001 C CNN
F 3 "" H 5000 4400 50  0001 C CNN
	1    5000 4400
	1    0    0    -1  
$EndComp
$Comp
L pqws:MMZ09332B U5
U 1 1 5A7DBC7A
P 5850 3900
F 0 "U5" H 6250 4400 60  0000 C CNN
F 1 "MMZ09332B" H 5500 3400 60  0000 C CNN
F 2 "Housings_DFN_QFN:QFN-12-1EP_3x3mm_Pitch0.5mm" H 6150 4300 60  0001 C CNN
F 3 "https://www.mouser.com/ds/2/302/a-1126961.pdf" H 6250 4400 60  0001 C CNN
	1    5850 3900
	1    0    0    -1  
$EndComp
Connection ~ 5000 4100
Wire Wire Line
	5000 4100 5250 4100
Connection ~ 4600 4100
Wire Wire Line
	4600 4100 4500 4100
$Comp
L power:VCC #PWR021
U 1 1 5A86744C
P 4900 2800
F 0 "#PWR021" H 4900 2650 50  0001 C CNN
F 1 "VCC" H 4917 2973 50  0000 C CNN
F 2 "" H 4900 2800 50  0001 C CNN
F 3 "" H 4900 2800 50  0001 C CNN
	1    4900 2800
	1    0    0    -1  
$EndComp
$Comp
L power:VCC #PWR023
U 1 1 5A86ACD0
P 7900 3300
F 0 "#PWR023" H 7900 3150 50  0001 C CNN
F 1 "VCC" H 7917 3473 50  0000 C CNN
F 2 "" H 7900 3300 50  0001 C CNN
F 3 "" H 7900 3300 50  0001 C CNN
	1    7900 3300
	1    0    0    -1  
$EndComp
Connection ~ 7900 3300
$Comp
L power:VCC #PWR022
U 1 1 5A86CD93
P 3950 3300
F 0 "#PWR022" H 3950 3150 50  0001 C CNN
F 1 "VCC" H 3967 3473 50  0000 C CNN
F 2 "" H 3950 3300 50  0001 C CNN
F 3 "" H 3950 3300 50  0001 C CNN
	1    3950 3300
	1    0    0    -1  
$EndComp
$EndSCHEMATC
