EESchema Schematic File Version 4
LIBS:pqws-main-hw-cache
EELAYER 26 0
EELAYER END
$Descr A4 11693 8268
encoding utf-8
Sheet 6 6
Title "PQWS Main board - PQ9 Interface"
Date "2017-12-05"
Rev ""
Comp "Libre Space Foundation"
Comment1 ""
Comment2 ""
Comment3 ""
Comment4 ""
$EndDescr
$Comp
L pqws:PQ9-Connector PQ1
U 1 1 5A2897BB
P 8350 5100
AR Path="/5A2897BB" Ref="PQ1"  Part="1" 
AR Path="/5A289551/5A2897BB" Ref="PQ1"  Part="1" 
F 0 "PQ1" H 8350 5600 50  0000 C CNN
F 1 "PQ9-Connector" V 8650 5100 50  0000 C CNN
F 2 "lsf-kicad-lib:PQ9" H 8350 5100 50  0001 C CNN
F 3 "" H 8350 5100 50  0001 C CNN
	1    8350 5100
	1    0    0    -1  
$EndComp
Text HLabel 8100 4700 0    60   Input ~ 0
RST
$Comp
L power:GND #PWR038
U 1 1 5A289804
P 7700 5100
F 0 "#PWR038" H 7700 4850 50  0001 C CNN
F 1 "GND" H 7700 4950 50  0000 C CNN
F 2 "" H 7700 5100 50  0001 C CNN
F 3 "" H 7700 5100 50  0001 C CNN
	1    7700 5100
	1    0    0    -1  
$EndComp
Text HLabel 5100 2500 0    60   Input ~ 0
CAN1TX
Text HLabel 5100 2600 0    60   Input ~ 0
CAN1RX
$Comp
L pqws-main-hw-rescue:SN65HVD234-interface U6
U 1 1 5A7B56B4
P 6600 2600
F 0 "U6" H 6500 3000 50  0000 R CNN
F 1 "SN65HVD234" H 6500 2900 50  0000 R CNN
F 2 "Housings_SOIC:SOIC-8_3.9x4.9mm_Pitch1.27mm" H 6600 2100 50  0001 C CNN
F 3 "" H 6500 3000 50  0001 C CNN
	1    6600 2600
	1    0    0    -1  
$EndComp
$Comp
L power:GND #PWR039
U 1 1 5A7B673E
P 6600 3000
F 0 "#PWR039" H 6600 2750 50  0001 C CNN
F 1 "GND" H 6600 2850 50  0000 C CNN
F 2 "" H 6600 3000 50  0001 C CNN
F 3 "" H 6600 3000 50  0001 C CNN
	1    6600 3000
	1    0    0    -1  
$EndComp
$Comp
L pqws-main-hw-rescue:D_Schottky-device D1
U 1 1 5A7BB63E
P 6300 4000
F 0 "D1" H 6300 4100 50  0000 C CNN
F 1 "D_Schottky" H 6300 3900 50  0000 C CNN
F 2 "Diode_SMD:D_0603_1608Metric_Pad0.67x1.00mm_HandSolder" H 6300 4000 50  0001 C CNN
F 3 "" H 6300 4000 50  0001 C CNN
	1    6300 4000
	1    0    0    -1  
$EndComp
$Comp
L pqws-main-hw-rescue:R-device R8
U 1 1 5A7BB786
P 5850 2950
F 0 "R8" V 5930 2950 50  0000 C CNN
F 1 "0" V 5850 2950 50  0000 C CNN
F 2 "Resistor_SMD:R_0603_1608Metric_Pad0.84x1.00mm_HandSolder" V 5780 2950 50  0001 C CNN
F 3 "" H 5850 2950 50  0001 C CNN
	1    5850 2950
	1    0    0    -1  
$EndComp
$Comp
L pqws-main-hw-rescue:R-device R9
U 1 1 5A7BB7E7
P 6100 2050
F 0 "R9" V 6180 2050 50  0000 C CNN
F 1 "0" V 6100 2050 50  0000 C CNN
F 2 "Resistor_SMD:R_0603_1608Metric_Pad0.84x1.00mm_HandSolder" V 6030 2050 50  0001 C CNN
F 3 "" H 6100 2050 50  0001 C CNN
	1    6100 2050
	0    1    1    0   
$EndComp
$Comp
L power:GND #PWR040
U 1 1 5A7BB85E
P 5850 3100
F 0 "#PWR040" H 5850 2850 50  0001 C CNN
F 1 "GND" H 5850 2950 50  0000 C CNN
F 2 "" H 5850 3100 50  0001 C CNN
F 3 "" H 5850 3100 50  0001 C CNN
	1    5850 3100
	1    0    0    -1  
$EndComp
$Comp
L pqws-main-hw-rescue:R-device R7
U 1 1 5A7BB9DD
P 5550 3650
F 0 "R7" V 5650 3650 50  0000 C CNN
F 1 "0" V 5550 3650 50  0000 C CNN
F 2 "Resistor_SMD:R_0603_1608Metric_Pad0.84x1.00mm_HandSolder" V 5480 3650 50  0001 C CNN
F 3 "" H 5550 3650 50  0001 C CNN
	1    5550 3650
	1    0    0    -1  
$EndComp
$Comp
L pqws-main-hw-rescue:R-device R6
U 1 1 5A7BBA5A
P 5400 3650
F 0 "R6" V 5480 3650 50  0000 C CNN
F 1 "0" V 5400 3650 50  0000 C CNN
F 2 "Resistor_SMD:R_0603_1608Metric_Pad0.84x1.00mm_HandSolder" V 5330 3650 50  0001 C CNN
F 3 "" H 5400 3650 50  0001 C CNN
	1    5400 3650
	1    0    0    -1  
$EndComp
Text HLabel 5100 2700 0    60   Input ~ 0
CanEn
$Comp
L pqws-main-hw-rescue:R-device R10
U 1 1 5A7BE651
P 7100 4100
F 0 "R10" V 7180 4100 50  0000 C CNN
F 1 "3K3" V 7100 4100 50  0000 C CNN
F 2 "Resistor_SMD:R_0603_1608Metric_Pad0.84x1.00mm_HandSolder" V 7030 4100 50  0001 C CNN
F 3 "" H 7100 4100 50  0001 C CNN
	1    7100 4100
	1    0    0    -1  
$EndComp
Text Notes 6850 3400 0    60   ~ 0
Driverless CAN
Wire Wire Line
	7950 5100 8150 5100
Wire Wire Line
	8150 5000 7700 5000
Wire Wire Line
	7700 5000 7700 5100
Wire Wire Line
	7000 2600 7800 2600
Wire Wire Line
	7800 2600 7800 4900
Wire Wire Line
	7000 2700 7750 2700
Wire Wire Line
	7750 2700 7750 4800
Connection ~ 7750 4800
Wire Wire Line
	5100 2500 5550 2500
Wire Wire Line
	5100 2600 5400 2600
Wire Wire Line
	6600 2050 6600 2300
Wire Wire Line
	6450 4000 6800 4000
Wire Wire Line
	6800 4000 6800 4150
Wire Wire Line
	6150 4000 5550 4000
Connection ~ 5550 2500
Wire Wire Line
	5400 4150 6800 4150
Connection ~ 6800 4150
Connection ~ 5400 2600
Wire Wire Line
	5850 2050 5850 2800
Wire Wire Line
	6250 2050 6600 2050
Wire Wire Line
	5850 2800 6200 2800
Wire Wire Line
	5400 2600 5400 3500
Wire Wire Line
	5400 3800 5400 4150
Wire Wire Line
	5550 4000 5550 3800
Wire Wire Line
	5550 3500 5550 2500
Wire Wire Line
	5100 2700 6200 2700
Wire Wire Line
	7100 4250 7100 4800
Connection ~ 7100 4800
Wire Wire Line
	7100 3800 7100 3950
Wire Notes Line
	5300 3400 7500 3400
Wire Notes Line
	7500 4350 5300 4350
Wire Notes Line
	5300 4350 5300 3400
Wire Notes Line
	7500 3400 7500 4350
Connection ~ 5850 2800
Connection ~ 6600 2050
Wire Wire Line
	5850 2050 5950 2050
Wire Wire Line
	6800 4800 7100 4800
Wire Wire Line
	7800 4900 8150 4900
Text Label 7950 5100 0    60   ~ 0
VCC
$Comp
L power:GND #PWR044
U 1 1 5A84FC99
P 7950 5500
F 0 "#PWR044" H 7950 5250 50  0001 C CNN
F 1 "GND" H 7950 5350 50  0000 C CNN
F 2 "" H 7950 5500 50  0001 C CNN
F 3 "" H 7950 5500 50  0001 C CNN
	1    7950 5500
	1    0    0    -1  
$EndComp
Wire Wire Line
	7950 5500 8150 5500
Wire Wire Line
	7750 4800 8150 4800
Wire Wire Line
	5550 2500 6200 2500
Wire Wire Line
	6800 4150 6800 4800
Wire Wire Line
	5400 2600 6200 2600
Wire Wire Line
	7100 4800 7750 4800
Wire Wire Line
	8100 4700 8150 4700
NoConn ~ 8150 5200
NoConn ~ 8150 5300
NoConn ~ 8150 5400
$Comp
L power:VCC #PWR046
U 1 1 5A876E7F
P 6600 2050
F 0 "#PWR046" H 6600 1900 50  0001 C CNN
F 1 "VCC" H 6600 2200 50  0000 C CNN
F 2 "" H 6600 2050 50  0001 C CNN
F 3 "" H 6600 2050 50  0001 C CNN
	1    6600 2050
	1    0    0    -1  
$EndComp
$Comp
L power:VCC #PWR047
U 1 1 5A876E9A
P 7100 3800
F 0 "#PWR047" H 7100 3650 50  0001 C CNN
F 1 "VCC" H 7100 3950 50  0000 C CNN
F 2 "" H 7100 3800 50  0001 C CNN
F 3 "" H 7100 3800 50  0001 C CNN
	1    7100 3800
	1    0    0    -1  
$EndComp
$EndSCHEMATC
