EESchema Schematic File Version 4
LIBS:pqws-main-hw-cache
EELAYER 26 0
EELAYER END
$Descr A4 11693 8268
encoding utf-8
Sheet 1 6
Title "PQWS Main board"
Date "2017-12-05"
Rev ""
Comp "Libre Space Foundation"
Comment1 ""
Comment2 ""
Comment3 ""
Comment4 ""
$EndDescr
$Sheet
S 3350 3100 1250 800 
U 5A285DD6
F0 "rf" 60
F1 "rf.sch" 60
F2 "RF_Tx_EN" I R 4600 3200 60 
F3 "RF_MISO" I R 4600 3350 60 
F4 "RF_MOSI" I R 4600 3500 60 
F5 "RF_SCK" I R 4600 3650 60 
F6 "RF_IRQ" I R 4600 3800 60 
$EndSheet
$Sheet
S 3350 1450 1250 1300
U 5A285E0E
F0 "Data Logging" 60
F1 "data_logging.sch" 60
F2 "CMD" I R 4600 1600 60 
F3 "CLK" I R 4600 1750 60 
F4 "D0" I R 4600 1900 60 
F5 "D1" I R 4600 2050 60 
F6 "D2" I R 4600 2200 60 
F7 "D3" I R 4600 2350 60 
F8 "SD_DET" I R 4600 2500 60 
$EndSheet
$Sheet
S 5350 1450 1950 2450
U 5A285DD1
F0 "MCU" 60
F1 "mcu.sch" 60
F2 "RxD" I R 7300 1700 60 
F3 "TxD" I R 7300 1800 60 
F4 "CMD" I L 5350 1600 60 
F5 "CLK" I L 5350 1750 60 
F6 "D0" I L 5350 1900 60 
F7 "D1" I L 5350 2050 60 
F8 "D2" I L 5350 2200 60 
F9 "D3" I L 5350 2350 60 
F10 "SD_DET" I L 5350 2500 60 
F11 "RF_Tx_EN" I L 5350 3200 60 
F12 "RF_MISO" I L 5350 3350 60 
F13 "RF_MOSI" I L 5350 3500 60 
F14 "RF_SCK" I L 5350 3650 60 
F15 "RF_IRQ" I L 5350 3800 60 
F16 "CAN1TX" I R 7300 2100 60 
F17 "CAN1RX" I R 7300 2200 60 
F18 "CAN1_EN" I R 7300 2300 60 
F19 "DD" I R 7300 1900 50 
F20 "RST_TRIG" I R 7300 2750 50 
$EndSheet
Wire Wire Line
	4600 1600 5350 1600
Wire Wire Line
	5350 1750 4600 1750
Wire Wire Line
	4600 1900 5350 1900
Wire Wire Line
	5350 2050 4600 2050
Wire Wire Line
	5350 2200 4600 2200
Wire Wire Line
	4600 2350 5350 2350
Wire Wire Line
	5350 2500 4600 2500
$Sheet
S 8400 1450 1050 1400
U 5A289551
F0 "PQBUS" 60
F1 "PQNUS.sch" 60
F2 "RST" I L 8400 2750 60 
F3 "CAN1TX" I L 8400 2100 60 
F4 "CAN1RX" I L 8400 2200 60 
F5 "CanEn" I L 8400 2300 60 
$EndSheet
Wire Wire Line
	4600 3200 5350 3200
Wire Wire Line
	5350 3350 4600 3350
Wire Wire Line
	4600 3500 5350 3500
Wire Wire Line
	5350 3650 4600 3650
Wire Wire Line
	4600 3800 5350 3800
Wire Wire Line
	7300 2100 8400 2100
Wire Wire Line
	8400 2200 7300 2200
Wire Wire Line
	7300 2300 8400 2300
Wire Wire Line
	7300 1700 7450 1700
Wire Wire Line
	7300 1800 7450 1800
Wire Wire Line
	7300 1900 7450 1900
$Comp
L power:VCC #PWR042
U 1 1 5A878351
P 2150 5250
F 0 "#PWR042" H 2150 5100 50  0001 C CNN
F 1 "VCC" H 2150 5400 50  0000 C CNN
F 2 "" H 2150 5250 50  0001 C CNN
F 3 "" H 2150 5250 50  0001 C CNN
	1    2150 5250
	1    0    0    -1  
$EndComp
$Comp
L power:PWR_FLAG #FLG02
U 1 1 5A878357
P 2150 5450
F 0 "#FLG02" H 2150 5525 50  0001 C CNN
F 1 "PWR_FLAG" H 2150 5600 50  0000 C CNN
F 2 "" H 2150 5450 50  0001 C CNN
F 3 "" H 2150 5450 50  0001 C CNN
	1    2150 5450
	-1   0    0    1   
$EndComp
Wire Wire Line
	2150 5250 2150 5450
$Comp
L power:GND #PWR049
U 1 1 5A8785D3
P 2650 5450
F 0 "#PWR049" H 2650 5200 50  0001 C CNN
F 1 "GND" H 2655 5277 50  0000 C CNN
F 2 "" H 2650 5450 50  0001 C CNN
F 3 "" H 2650 5450 50  0001 C CNN
	1    2650 5450
	1    0    0    -1  
$EndComp
$Comp
L power:PWR_FLAG #FLG03
U 1 1 5A878605
P 2650 5250
F 0 "#FLG03" H 2650 5325 50  0001 C CNN
F 1 "PWR_FLAG" H 2650 5424 50  0000 C CNN
F 2 "" H 2650 5250 50  0001 C CNN
F 3 "" H 2650 5250 50  0001 C CNN
	1    2650 5250
	1    0    0    -1  
$EndComp
Wire Wire Line
	2650 5250 2650 5450
Wire Wire Line
	7300 2750 8400 2750
$Comp
L Connector_Generic:Conn_01x03 J3
U 1 1 5A8765CF
P 7650 1800
F 0 "J3" H 7730 1842 50  0000 L CNN
F 1 "Conn_01x03" H 7730 1751 50  0000 L CNN
F 2 "Connector_PinHeader_2.54mm:PinHeader_1x03_P2.54mm_Vertical" H 7650 1800 50  0001 C CNN
F 3 "~" H 7650 1800 50  0001 C CNN
	1    7650 1800
	1    0    0    -1  
$EndComp
$EndSCHEMATC
