EESchema Schematic File Version 4
LIBS:pqws-main-hw-cache
EELAYER 26 0
EELAYER END
$Descr A4 11693 8268
encoding utf-8
Sheet 2 6
Title "PQWS Main board - COMMS"
Date "2017-12-05"
Rev ""
Comp "Libre Space Foundation"
Comment1 ""
Comment2 ""
Comment3 ""
Comment4 ""
$EndDescr
Text HLabel 9000 4400 3    60   Input ~ 0
RF_Tx_EN
Text HLabel 10050 3650 2    60   Input ~ 0
RF_MISO
Text HLabel 10050 3550 2    60   Input ~ 0
RF_MOSI
Text HLabel 10050 3750 2    60   Input ~ 0
RF_SCK
Text HLabel 10050 3350 2    60   Input ~ 0
RF_IRQ
$Comp
L power:GND #PWR01
U 1 1 5A7C45B5
P 8650 2500
F 0 "#PWR01" H 8650 2250 50  0001 C CNN
F 1 "GND" H 8650 2350 50  0000 C CNN
F 2 "" H 8650 2500 50  0001 C CNN
F 3 "" H 8650 2500 50  0001 C CNN
	1    8650 2500
	-1   0    0    1   
$EndComp
$Comp
L power:GND #PWR02
U 1 1 5A7C45E1
P 9700 2300
F 0 "#PWR02" H 9700 2050 50  0001 C CNN
F 1 "GND" H 9700 2150 50  0000 C CNN
F 2 "" H 9700 2300 50  0001 C CNN
F 3 "" H 9700 2300 50  0001 C CNN
	1    9700 2300
	1    0    0    -1  
$EndComp
$Comp
L pqws-main-hw-rescue:C-device C21
U 1 1 5A7C4720
P 9700 2050
F 0 "C21" H 9725 2150 50  0000 L CNN
F 1 "C" H 9725 1950 50  0000 L CNN
F 2 "Capacitor_SMD:C_0603_1608Metric_Pad0.84x1.00mm_HandSolder" H 9738 1900 50  0001 C CNN
F 3 "" H 9700 2050 50  0001 C CNN
	1    9700 2050
	1    0    0    -1  
$EndComp
$Comp
L pqws-main-hw-rescue:L-device L8
U 1 1 5A7C4DB2
P 6550 3750
F 0 "L8" V 6500 3750 50  0000 C CNN
F 1 "L" V 6625 3750 50  0000 C CNN
F 2 "Inductor_SMD:L_0603_1608Metric_Pad0.84x1.00mm_HandSolder" H 6550 3750 50  0001 C CNN
F 3 "" H 6550 3750 50  0001 C CNN
	1    6550 3750
	1    0    0    -1  
$EndComp
$Comp
L pqws-main-hw-rescue:L-device L11
U 1 1 5A7C4DE9
P 6900 3750
F 0 "L11" V 6850 3750 50  0000 C CNN
F 1 "L" V 6975 3750 50  0000 C CNN
F 2 "Inductor_SMD:L_0603_1608Metric_Pad0.84x1.00mm_HandSolder" H 6900 3750 50  0001 C CNN
F 3 "" H 6900 3750 50  0001 C CNN
	1    6900 3750
	1    0    0    -1  
$EndComp
$Comp
L pqws-main-hw-rescue:L-device L10
U 1 1 5A7C4E06
P 6900 3200
F 0 "L10" V 6850 3200 50  0000 C CNN
F 1 "L" V 6975 3200 50  0000 C CNN
F 2 "Inductor_SMD:L_0603_1608Metric_Pad0.84x1.00mm_HandSolder" H 6900 3200 50  0001 C CNN
F 3 "" H 6900 3200 50  0001 C CNN
	1    6900 3200
	1    0    0    -1  
$EndComp
$Comp
L pqws-main-hw-rescue:L-device L6
U 1 1 5A7C4E83
P 5850 3550
F 0 "L6" V 5800 3550 50  0000 C CNN
F 1 "L" V 5925 3550 50  0000 C CNN
F 2 "Inductor_SMD:L_0603_1608Metric_Pad0.84x1.00mm_HandSolder" H 5850 3550 50  0001 C CNN
F 3 "" H 5850 3550 50  0001 C CNN
	1    5850 3550
	0    1    1    0   
$EndComp
$Comp
L pqws-main-hw-rescue:L-device L9
U 1 1 5A7C4EE4
P 6750 4350
F 0 "L9" V 6700 4350 50  0000 C CNN
F 1 "L" V 6825 4350 50  0000 C CNN
F 2 "Inductor_SMD:L_0603_1608Metric_Pad0.84x1.00mm_HandSolder" H 6750 4350 50  0001 C CNN
F 3 "" H 6750 4350 50  0001 C CNN
	1    6750 4350
	0    1    1    0   
$EndComp
$Comp
L pqws-main-hw-rescue:L-device L7
U 1 1 5A7C4F29
P 6150 4350
F 0 "L7" V 6100 4350 50  0000 C CNN
F 1 "L" V 6225 4350 50  0000 C CNN
F 2 "Inductor_SMD:L_0603_1608Metric_Pad0.84x1.00mm_HandSolder" H 6150 4350 50  0001 C CNN
F 3 "" H 6150 4350 50  0001 C CNN
	1    6150 4350
	0    1    1    0   
$EndComp
$Comp
L Device:C C19
U 1 1 5A7C4F4E
P 7250 2800
F 0 "C19" H 7275 2900 50  0000 L CNN
F 1 "C" H 7275 2700 50  0000 L CNN
F 2 "Capacitor_SMD:C_0603_1608Metric_Pad0.84x1.00mm_HandSolder" H 7288 2650 50  0001 C CNN
F 3 "" H 7250 2800 50  0001 C CNN
	1    7250 2800
	1    0    0    -1  
$EndComp
$Comp
L pqws-main-hw-rescue:C-device C20
U 1 1 5A7C4FC3
P 7500 3800
F 0 "C20" H 7525 3900 50  0000 L CNN
F 1 "C" H 7525 3700 50  0000 L CNN
F 2 "Capacitor_SMD:C_0603_1608Metric_Pad0.84x1.00mm_HandSolder" H 7538 3650 50  0001 C CNN
F 3 "" H 7500 3800 50  0001 C CNN
	1    7500 3800
	1    0    0    -1  
$EndComp
$Comp
L pqws-main-hw-rescue:C-device C15
U 1 1 5A7C5024
P 6200 3750
F 0 "C15" H 6225 3850 50  0000 L CNN
F 1 "C" H 6225 3650 50  0000 L CNN
F 2 "Capacitor_SMD:C_0603_1608Metric_Pad0.84x1.00mm_HandSolder" H 6238 3600 50  0001 C CNN
F 3 "" H 6200 3750 50  0001 C CNN
	1    6200 3750
	1    0    0    -1  
$EndComp
$Comp
L pqws-main-hw-rescue:C-device C16
U 1 1 5A7C5091
P 6350 3350
F 0 "C16" H 6375 3450 50  0000 L CNN
F 1 "C" H 6375 3250 50  0000 L CNN
F 2 "Capacitor_SMD:C_0603_1608Metric_Pad0.84x1.00mm_HandSolder" H 6388 3200 50  0001 C CNN
F 3 "" H 6350 3350 50  0001 C CNN
	1    6350 3350
	0    1    1    0   
$EndComp
$Comp
L pqws-main-hw-rescue:C-device C13
U 1 1 5A7C50D8
P 5450 3550
F 0 "C13" H 5475 3650 50  0000 L CNN
F 1 "C" H 5475 3450 50  0000 L CNN
F 2 "Capacitor_SMD:C_0603_1608Metric_Pad0.84x1.00mm_HandSolder" H 5488 3400 50  0001 C CNN
F 3 "" H 5450 3550 50  0001 C CNN
	1    5450 3550
	0    1    1    0   
$EndComp
$Comp
L pqws-main-hw-rescue:C-device C18
U 1 1 5A7C5113
P 7250 4350
F 0 "C18" H 7275 4450 50  0000 L CNN
F 1 "C" H 7275 4250 50  0000 L CNN
F 2 "Capacitor_SMD:C_0603_1608Metric_Pad0.84x1.00mm_HandSolder" H 7288 4200 50  0001 C CNN
F 3 "" H 7250 4350 50  0001 C CNN
	1    7250 4350
	0    1    1    0   
$EndComp
$Comp
L pqws-main-hw-rescue:C-device C17
U 1 1 5A7C515E
P 6450 4650
F 0 "C17" H 6475 4750 50  0000 L CNN
F 1 "C" H 6475 4550 50  0000 L CNN
F 2 "Capacitor_SMD:C_0603_1608Metric_Pad0.84x1.00mm_HandSolder" H 6488 4500 50  0001 C CNN
F 3 "" H 6450 4650 50  0001 C CNN
	1    6450 4650
	-1   0    0    1   
$EndComp
$Comp
L pqws-main-hw-rescue:C-device C14
U 1 1 5A7C51C3
P 5750 4650
F 0 "C14" H 5775 4750 50  0000 L CNN
F 1 "C" H 5775 4550 50  0000 L CNN
F 2 "Capacitor_SMD:C_0603_1608Metric_Pad0.84x1.00mm_HandSolder" H 5788 4500 50  0001 C CNN
F 3 "" H 5750 4650 50  0001 C CNN
	1    5750 4650
	-1   0    0    1   
$EndComp
$Comp
L power:GND #PWR04
U 1 1 5A7C5C9E
P 6450 4900
F 0 "#PWR04" H 6450 4650 50  0001 C CNN
F 1 "GND" H 6450 4750 50  0000 C CNN
F 2 "" H 6450 4900 50  0001 C CNN
F 3 "" H 6450 4900 50  0001 C CNN
	1    6450 4900
	1    0    0    -1  
$EndComp
$Comp
L power:GND #PWR05
U 1 1 5A7C5CD2
P 5750 4900
F 0 "#PWR05" H 5750 4650 50  0001 C CNN
F 1 "GND" H 5750 4750 50  0000 C CNN
F 2 "" H 5750 4900 50  0001 C CNN
F 3 "" H 5750 4900 50  0001 C CNN
	1    5750 4900
	1    0    0    -1  
$EndComp
$Comp
L power:GND #PWR06
U 1 1 5A7C5D04
P 6900 3900
F 0 "#PWR06" H 6900 3650 50  0001 C CNN
F 1 "GND" H 6900 3750 50  0000 C CNN
F 2 "" H 6900 3900 50  0001 C CNN
F 3 "" H 6900 3900 50  0001 C CNN
	1    6900 3900
	1    0    0    -1  
$EndComp
$Comp
L power:GND #PWR07
U 1 1 5A7C5D36
P 6200 4000
F 0 "#PWR07" H 6200 3750 50  0001 C CNN
F 1 "GND" H 6200 3850 50  0000 C CNN
F 2 "" H 6200 4000 50  0001 C CNN
F 3 "" H 6200 4000 50  0001 C CNN
	1    6200 4000
	1    0    0    -1  
$EndComp
$Comp
L power:GND #PWR08
U 1 1 5A7C5D68
P 6900 2900
F 0 "#PWR08" H 6900 2650 50  0001 C CNN
F 1 "GND" H 6900 2750 50  0000 C CNN
F 2 "" H 6900 2900 50  0001 C CNN
F 3 "" H 6900 2900 50  0001 C CNN
	1    6900 2900
	-1   0    0    1   
$EndComp
$Comp
L pqws-main-hw-rescue:SKY13351-gsg-symbols U3
U 1 1 5A7C6BBC
P 4050 3650
AR Path="/5A7C6BBC" Ref="U3"  Part="1" 
AR Path="/5A285DD6/5A7C6BBC" Ref="U3"  Part="1" 
F 0 "U3" H 4050 3850 60  0000 C CNN
F 1 "SKY13351" H 4050 3450 60  0000 C CNN
F 2 "GSG:SKY13351-378LF" H 4050 3650 60  0001 C CNN
F 3 "http://www.skyworksinc.com/uploads/documents/SKY13351_378LF_201132I.pdf" H 4050 3650 60  0001 C CNN
	1    4050 3650
	-1   0    0    1   
$EndComp
$Comp
L pqws-main-hw-rescue:Conn_Coaxial-conn J2
U 1 1 5A7C6E33
P 2900 3650
F 0 "J2" H 2910 3770 50  0000 C CNN
F 1 "Conn_Coaxial" V 3015 3650 50  0000 C CNN
F 2 "w_conn_rf:sma_straight_32k101-400l5" H 2900 3650 50  0001 C CNN
F 3 "" H 2900 3650 50  0001 C CNN
	1    2900 3650
	-1   0    0    -1  
$EndComp
$Comp
L power:GND #PWR09
U 1 1 5A7C6FF4
P 2900 4000
F 0 "#PWR09" H 2900 3750 50  0001 C CNN
F 1 "GND" H 2900 3850 50  0000 C CNN
F 2 "" H 2900 4000 50  0001 C CNN
F 3 "" H 2900 4000 50  0001 C CNN
	1    2900 4000
	1    0    0    -1  
$EndComp
$Comp
L power:GND #PWR010
U 1 1 5A7C7B1A
P 5050 3750
F 0 "#PWR010" H 5050 3500 50  0001 C CNN
F 1 "GND" H 5050 3600 50  0000 C CNN
F 2 "" H 5050 3750 50  0001 C CNN
F 3 "" H 5050 3750 50  0001 C CNN
	1    5050 3750
	1    0    0    -1  
$EndComp
$Sheet
S 4450 4250 1000 350 
U 5A7D0D5C
F0 "PA" 60
F1 "PA_Sheet.sch" 60
F2 "RF_IN" I R 5450 4350 60 
F3 "RF_OUT" I L 4450 4350 60 
F4 "PowerDown" I L 4450 4500 60 
F5 "PDET" I R 5450 4500 60 
$EndSheet
$Comp
L power:GND #PWR011
U 1 1 5A7D47C5
P 9400 4250
F 0 "#PWR011" H 9400 4000 50  0001 C CNN
F 1 "GND" H 9400 4100 50  0000 C CNN
F 2 "" H 9400 4250 50  0001 C CNN
F 3 "" H 9400 4250 50  0001 C CNN
	1    9400 4250
	1    0    0    -1  
$EndComp
Wire Wire Line
	9000 4250 9000 4400
Wire Wire Line
	9850 3350 10050 3350
Wire Wire Line
	10050 3550 9850 3550
Wire Wire Line
	9850 3650 10050 3650
Wire Wire Line
	10050 3750 9850 3750
Wire Wire Line
	9700 1600 9700 1750
Wire Wire Line
	9700 2200 9700 2300
Wire Wire Line
	8850 2650 8850 1750
Wire Wire Line
	8850 1750 9700 1750
Connection ~ 9700 1750
Wire Wire Line
	8650 2500 8650 2650
Wire Wire Line
	8650 2650 8550 2650
Wire Wire Line
	7650 3250 7400 3250
Wire Wire Line
	7650 3150 7650 2650
Wire Wire Line
	7650 2650 7250 2650
Wire Wire Line
	7150 3650 7500 3650
Wire Wire Line
	7650 3750 7650 3950
Wire Wire Line
	7650 3950 7500 3950
Wire Wire Line
	6900 3550 7400 3550
Wire Wire Line
	6900 3550 6900 3600
Wire Wire Line
	6550 3900 6900 3900
Wire Wire Line
	7150 3900 7150 3650
Connection ~ 6900 3900
Connection ~ 7500 3650
Wire Wire Line
	7650 3450 6550 3450
Wire Wire Line
	6550 3450 6550 3550
Wire Wire Line
	6500 3350 6900 3350
Connection ~ 6900 3350
Wire Wire Line
	6900 2900 6900 3050
Wire Wire Line
	6000 3550 6200 3550
Wire Wire Line
	6200 3550 6200 3600
Connection ~ 6550 3550
Wire Wire Line
	6200 3900 6200 4000
Connection ~ 6200 3550
Wire Wire Line
	5600 3550 5650 3550
Wire Wire Line
	6200 3350 5650 3350
Wire Wire Line
	5650 3350 5650 3550
Connection ~ 5650 3550
Wire Wire Line
	7100 4350 6900 4350
Wire Wire Line
	6300 4350 6450 4350
Wire Wire Line
	5450 4350 5750 4350
Wire Wire Line
	5750 4350 5750 4500
Wire Wire Line
	6450 4350 6450 4500
Connection ~ 6450 4350
Wire Wire Line
	6450 4800 6450 4900
Wire Wire Line
	5750 4900 5750 4800
Wire Wire Line
	7400 3550 7400 4350
Connection ~ 7400 3550
Wire Wire Line
	5300 3550 4500 3550
Wire Wire Line
	3050 3650 3600 3650
Wire Wire Line
	2900 3850 2900 4000
Wire Wire Line
	4500 3650 5050 3650
Wire Wire Line
	5050 3650 5050 3750
Connection ~ 5750 4350
Wire Wire Line
	4500 3750 4500 4050
Wire Wire Line
	4500 4050 4300 4050
Wire Wire Line
	4300 4050 4300 4350
Wire Wire Line
	4300 4350 4450 4350
Text GLabel 9850 3150 2    60   Input ~ 0
ANTSEL
Text GLabel 3600 3550 0    60   Input ~ 0
ANTSEL
Text GLabel 9850 3250 2    60   Input ~ 0
PA_POWER_EN
Text GLabel 3600 4500 0    60   Input ~ 0
PA_POWER_EN
NoConn ~ 8950 2650
NoConn ~ 8750 2650
NoConn ~ 8400 4250
NoConn ~ 8800 4250
NoConn ~ 8900 4250
Wire Wire Line
	8700 5200 8700 4250
Wire Wire Line
	4450 4500 3600 4500
Wire Wire Line
	3600 4500 3600 3750
Wire Wire Line
	5450 4500 5550 4500
Wire Wire Line
	5550 4500 5550 5200
Wire Wire Line
	5550 5200 8700 5200
$Comp
L pqws:AX5043 U4
U 1 1 5A7DC5A0
P 8750 3450
F 0 "U4" H 8750 3350 50  0000 C CNN
F 1 "AX5043" H 8750 3500 50  0000 C CNN
F 2 "Housings_DFN_QFN:QFN-28-1EP_5x5mm_Pitch0.5mm" H 10050 4200 50  0001 C CNN
F 3 "https://www.onsemi.com/pub/Collateral/AX5043-D.PDF" H 10100 4100 50  0001 C CNN
	1    8750 3450
	1    0    0    -1  
$EndComp
$Comp
L power:GND #PWR012
U 1 1 5A84E15A
P 7250 3100
F 0 "#PWR012" H 7250 2850 50  0001 C CNN
F 1 "GND" H 7250 2950 50  0000 C CNN
F 2 "" H 7250 3100 50  0001 C CNN
F 3 "" H 7250 3100 50  0001 C CNN
	1    7250 3100
	1    0    0    -1  
$EndComp
Wire Wire Line
	7400 3250 7400 3100
Wire Wire Line
	7400 3100 7250 3100
Wire Wire Line
	7250 3100 7250 2950
NoConn ~ 9850 3450
Wire Wire Line
	9700 1750 9700 1900
Wire Wire Line
	6900 3900 7150 3900
Wire Wire Line
	7500 3650 7650 3650
Wire Wire Line
	6900 3350 7650 3350
Wire Wire Line
	6550 3550 6550 3600
Wire Wire Line
	6200 3550 6550 3550
Wire Wire Line
	5650 3550 5700 3550
Wire Wire Line
	6450 4350 6600 4350
Wire Wire Line
	7400 3550 7650 3550
Wire Wire Line
	5750 4350 6000 4350
$Comp
L power:VCC #PWR03
U 1 1 5A867315
P 9700 1600
F 0 "#PWR03" H 9700 1450 50  0001 C CNN
F 1 "VCC" H 9717 1773 50  0000 C CNN
F 2 "" H 9700 1600 50  0001 C CNN
F 3 "" H 9700 1600 50  0001 C CNN
	1    9700 1600
	1    0    0    -1  
$EndComp
$Comp
L pqws:KT1612A U2
U 1 1 5A8A39F7
P 7300 1250
F 0 "U2" H 7275 1715 50  0000 C CNN
F 1 "KT1612A" H 7275 1624 50  0000 C CNN
F 2 "Package_SIP:SIP4_Sharp-SSR_P7.62mm_Angled" H 7300 1250 50  0001 C CNN
F 3 "https://www.mouser.com/ds/2/40/kt1612_e-1140390.pdf" H 7300 1250 50  0001 C CNN
	1    7300 1250
	1    0    0    -1  
$EndComp
$Comp
L power:GND #PWR045
U 1 1 5A85FBA0
P 7400 1950
F 0 "#PWR045" H 7400 1700 50  0001 C CNN
F 1 "GND" H 7405 1777 50  0000 C CNN
F 2 "" H 7400 1950 50  0001 C CNN
F 3 "" H 7400 1950 50  0001 C CNN
	1    7400 1950
	1    0    0    -1  
$EndComp
$Comp
L pqws-main-hw-rescue:C-device C30
U 1 1 5A85FC99
P 8350 1750
F 0 "C30" H 8465 1796 50  0000 L CNN
F 1 "1nF" H 8465 1705 50  0000 L CNN
F 2 "Capacitor_SMD:C_0603_1608Metric_Pad0.84x1.00mm_HandSolder" H 8388 1600 50  0001 C CNN
F 3 "" H 8350 1750 50  0001 C CNN
	1    8350 1750
	1    0    0    -1  
$EndComp
$Comp
L pqws-main-hw-rescue:C-device C29
U 1 1 5A85FF47
P 7850 1450
F 0 "C29" H 7965 1496 50  0000 L CNN
F 1 "10pF" H 7965 1405 50  0000 L CNN
F 2 "Capacitor_SMD:C_0603_1608Metric_Pad0.84x1.00mm_HandSolder" H 7888 1300 50  0001 C CNN
F 3 "" H 7850 1450 50  0001 C CNN
	1    7850 1450
	1    0    0    -1  
$EndComp
$Comp
L pqws-main-hw-rescue:C-device C28
U 1 1 5A85FFB0
P 6600 1450
F 0 "C28" H 6715 1496 50  0000 L CNN
F 1 "10nF" H 6715 1405 50  0000 L CNN
F 2 "Capacitor_SMD:C_0603_1608Metric_Pad0.84x1.00mm_HandSolder" H 6638 1300 50  0001 C CNN
F 3 "" H 6600 1450 50  0001 C CNN
	1    6600 1450
	1    0    0    -1  
$EndComp
Wire Wire Line
	7850 1600 7850 1750
Wire Wire Line
	7850 1750 7400 1750
Wire Wire Line
	7400 1750 7200 1750
Connection ~ 7400 1750
Wire Wire Line
	7200 1750 6600 1750
Wire Wire Line
	6600 1750 6600 1600
Connection ~ 7200 1750
Wire Wire Line
	6800 1050 6600 1050
Wire Wire Line
	6600 1050 6600 1300
Wire Wire Line
	7750 1050 7850 1050
Wire Wire Line
	7850 1050 7850 1300
Wire Wire Line
	7850 1050 8350 1050
Wire Wire Line
	8350 1050 8350 1600
Connection ~ 7850 1050
Wire Wire Line
	8350 1900 8350 2650
$Comp
L power:VCC #PWR043
U 1 1 5A86BCCD
P 6600 1050
F 0 "#PWR043" H 6600 900 50  0001 C CNN
F 1 "VCC" H 6617 1223 50  0000 C CNN
F 2 "" H 6600 1050 50  0001 C CNN
F 3 "" H 6600 1050 50  0001 C CNN
	1    6600 1050
	1    0    0    -1  
$EndComp
Connection ~ 6600 1050
Wire Wire Line
	7400 1750 7400 1950
NoConn ~ 8450 2650
Wire Wire Line
	8500 4250 8600 4250
$EndSCHEMATC
